{
    "version": "2.0.0",
    "summary": "Some simple functions that work with Tuple",
    "repository": "https://github.com/Fresheyeball/elm-tuple-extra.git",
    "license": "MIT",
    "source-directories": [
        "."
    ],
    "exposed-modules": [
        "Tuple2",
        "Tuple3"
    ],
    "dependencies": {
        "elm-lang/core": "4.0.0 <= v < 5.0.0"
    },
    "elm-version": "0.17.0 <= v < 0.18.0"
}